Class Problem/seqPractice/problem_tff.vcd
$date
	Mon Nov 18 23:07:28 2024
$end
$version
	Icarus Verilog
$end
$timescale
	1s
$end
$scope module t_proplem_tff $end
$var wire 2 ! state [1:0] $end
$var wire 1 " B $end
$var wire 1 # A $end
$var reg 1 $ clk $end
$var reg 1 % res $end
$var reg 1 & x $end
$scope module t $end
$var wire 1 ' Ta $end
$var wire 1 ( Tb $end
$var wire 1 $ clk $end
$var wire 1 % res $end
$var wire 1 & x $end
$var wire 1 " B $end
$var wire 1 # A $end
$scope module t1 $end
$var wire 1 $ Clk $end
$var wire 1 ) DT $end
$var wire 1 ' T $end
$var wire 1 % rst $end
$var wire 1 # Q $end
$scope module TF1 $end
$var wire 1 $ Clk $end
$var wire 1 ) D $end
$var wire 1 % rst $end
$var reg 1 # Q $end
$upscope $end
$upscope $end
$scope module t2 $end
$var wire 1 $ Clk $end
$var wire 1 * DT $end
$var wire 1 ( T $end
$var wire 1 % rst $end
$var wire 1 " Q $end
$scope module TF1 $end
$var wire 1 $ Clk $end
$var wire 1 * D $end
$var wire 1 % rst $end
$var reg 1 " Q $end
$upscope $end
$upscope $end
$upscope $end
$upscope $end
$enddefinitions $end
#0
$dumpvars
x*
x)
x(
x'
0&
1%
0$
x#
x"
bx !
$end
#5
0*
1)
0(
1'
0#
b0 !
0"
0%
1$
#10
0)
0'
1%
0$
1&
#15
1$
#20
0$
#25
1$
#30
0$
#35
1$
#40
1)
1'
0$
0&
#45
1*
0'
1(
1)
b10 !
1#
1$
#50
0$
#55
0(
0)
1'
1*
b11 !
1"
1$
#60
0$
#65
0*
1(
0'
0)
b1 !
0#
1$
#70
1*
0(
0$
1&
#75
1$
#80
0$
#85
1$
#90
0$
#95
1$
#100
0*
1(
0$
0&
#105
1)
1'
0(
0*
b0 !
0"
1$
#110
0$
#115
1*
0'
1(
1)
b10 !
1#
1$
#120
0$
#125
0(
0)
1'
1*
b11 !
1"
1$
#130
0$
#135
0*
1(
0'
0)
b1 !
0#
1$
