Class Problem/anis-sir/Lecture6/t_slide5_str.vcd
$date
	Fri Jul 19 21:23:29 2024
$end
$version
	Icarus Verilog
$end
$timescale
	1s
$end
$scope module t_slide5_str $end
$var wire 1 ! F1 $end
$var wire 1 " F2 $end
$var reg 1 # A $end
$var reg 1 $ B $end
$var reg 1 % C $end
$scope begin initialize $end
$upscope $end
$upscope $end
$enddefinitions $end
$comment Show the parameter values. $end
$dumpall
$end
#0
$dumpvars
0%
0$
0#
0"
0!
$end
#10
1!
1%
#20
0%
1$
#30
1"
0!
1%
#40
0"
1!
0%
0$
1#
#50
1%
0#
#60
0!
1"
0%
1$
1#
#70
1!
1%
